[
    {
        "languaje": "Java",
        "ext": "java"
    },
    {
        "languaje": "Scala",
        "ext": "scala"
    },
    {
        "languaje": "Scala",
        "ext": "sc"
    },
    {
        "languaje": "Python",
        "ext": "py"
    },
    {
        "languaje": "Javascript",
        "ext": "js"
    },
    {
        "languaje": "TypeScript",
        "ext": "ts"
    },
    {
        "languaje": "Css",
        "ext": "css"
    },
    {
        "languaje": "Scss",
        "ext": "scss"
    },
    {
        "languaje": "c++",
        "ext": "cpp"
    },
    {
        "languaje": "C",
        "ext": "c"
    },
    {
        "languaje": "HTML",
        "ext": "html"
    }
]
